…
The raw data contains 52179 observations and 12 variables. The key
variables are uid, reported date, victim last name, victim first name,
victim race, victim age, victim sex, city, state, latitude, longitude,
and disposition. The dataset contains information from 28 distinct
states.

``` r
homicide_df = homicide_df %>% mutate(city_state = paste(city, state, sep = ", "))

homicide_summary = homicide_df %>% group_by(city_state) %>% summarize(total_homicide = n(), unsolved_homicides = sum(disposition == "Closed without arrest" | disposition == "Open/No arrest"))

homicide_summary
```

    ## # A tibble: 51 × 3
    ##    city_state      total_homicide unsolved_homicides
    ##    <chr>                    <int>              <int>
    ##  1 Albuquerque, NM            378                146
    ##  2 Atlanta, GA                973                373
    ##  3 Baltimore, MD             2827               1825
    ##  4 Baton Rouge, LA            424                196
    ##  5 Birmingham, AL             800                347
    ##  6 Boston, MA                 614                310
    ##  7 Buffalo, NY                521                319
    ##  8 Charlotte, NC              687                206
    ##  9 Chicago, IL               5535               4073
    ## 10 Cincinnati, OH             694                309
    ## # … with 41 more rows
…
